{
    "dev" : {
        "defaultPort": 3000,
        "arkeon" : {
            "callbackURL" : "/tokenPlease",
            "ttpId" : "PSDFR-ACPR-12345",
            "commercialName" : "thecommercial",
            "appName" : "testWalid",
            "consumerKey" : "VjGpeA4dj18dAGcIuWfpLC9IpIUUBjJI",
            "consumerSercret" : "d4TWnyHTyysZaizN",
            "requestURL" : "api-sandbox.cmb.fr",
            "authorizeURL" : "https://api.arkea.com/psd2-psu-sandbox/authorize",
            "bankCode": "15589",
            "useCases" : [
                { "name" : "Francis BERGOT", "code":  "123456700", "description": "a customer with one account" },
                { "name" : "John ROLLAND", "code":  "123456701" , "description": "a customer with two accounts (one for which the customer is the holder and the other one for which he is an attorney)"},
                { "name" : "Pierre BEAU", "code":  "123456703", "description": "a customer with no account" }
            ]
        }
    }
}